4.236818859100341683e+02
3.109308303833007869e+01
1.846864059448242301e+01
1.641547729492187457e+01
1.510732669830322195e+01
1.402993340492248464e+01
1.323360534667968835e+01
1.246941226959228466e+01
1.172435261726379352e+01
1.134240388870239258e+01
1.075898548126220788e+01
1.041127574920654375e+01
1.003344665527343693e+01
9.810206842422484641e+00
9.526813983917236328e+00
9.316892547607421804e+00
9.225351514816283682e+00
9.010115113258361674e+00
8.888148221969604634e+00
8.835174770355225249e+00
8.575503988265991140e+00
8.645950174331664684e+00
8.426753139495849254e+00
8.461597099304199787e+00
8.367378993034362722e+00
8.308264260292054004e+00
7.956163587570190820e+00
7.859832444190979039e+00
7.861928591728210236e+00
7.757872900962829554e+00
7.807053580284118333e+00
7.723909525871277104e+00
7.560592203140259038e+00
7.533393893241882466e+00
7.487748761177062562e+00
7.442943749427795019e+00
7.374743790626525630e+00
7.347598295211792419e+00
7.366427550315856720e+00
7.357886934280395863e+00
7.300971875190734650e+00
7.237764744758606206e+00
7.273882694244385050e+00
7.236990427970885875e+00
7.197434716224670126e+00
7.133791356086731206e+00
7.091264448165893519e+00
7.104101490974426447e+00
7.053805136680603383e+00
7.045632691383361568e+00
