1.997592408752441315e+02
1.909564197540283104e+01
1.786149240493774570e+01
1.733920743942260856e+01
2.949627645492553540e+01
1.418115425109863281e+01
1.420021200180053711e+01
1.467278711318969719e+01
1.188680793762206989e+01
1.182069337844848711e+01
1.212942588806152422e+01
1.169304546356201158e+01
1.119535263061523445e+01
1.052546396255493200e+01
1.062411840438842781e+01
1.422668701171875050e+01
1.013757041931152258e+01
9.925659236907959482e+00
9.598101444244385050e+00
9.543016643524170561e+00
9.463896331787109872e+00
9.494766740798949556e+00
9.377460708618164276e+00
1.002924303054809485e+01
9.069899244308471609e+00
9.066217899322509766e+00
8.785289363861084055e+00
9.826907691955566904e+00
9.483005752563476776e+00
9.439130897521971875e+00
8.859578151702880433e+00
8.707440834045410583e+00
8.604850378036498881e+00
8.384515466690062979e+00
8.323337030410765891e+00
8.522442207336425213e+00
8.281687746047973420e+00
8.449874897003173402e+00
8.394317560195922567e+00
8.538364095687866140e+00
8.369958868026733612e+00
8.071828336715698882e+00
8.209003334045410938e+00
8.078777103424071626e+00
8.187036695480346182e+00
8.110893478393554901e+00
8.138126106262207671e+00
8.110995664596558186e+00
7.974738683700561381e+00
7.975768041610717951e+00
